###############################################################
#  Generated by:      Cadence Innovus 17.13-s098_1
#  OS:                Linux x86_64(Host ID cadence212)
#  Generated on:      Thu Sep 12 15:26:32 2019
#  Design:            mtm_Alu
#  Command:           check_drc -out_file ./timingReports/14_check_drc.rpt
###############################################################

No DRC violations were found

